module gitlab.com/gitlab-org/gitlab/workhorse

go 1.16

require (
	github.com/Azure/azure-storage-blob-go v0.13.0
	github.com/BurntSushi/toml v0.3.1
	github.com/FZambia/sentinel v1.0.0
	github.com/alecthomas/chroma v0.7.3
	github.com/aws/aws-sdk-go v1.38.35
	github.com/certifi/gocertifi v0.0.0-20200922220541-2c3bb06c6054 // indirect
	github.com/disintegration/imaging v1.6.2
	github.com/getsentry/raven-go v0.2.0
	github.com/golang-jwt/jwt/v4 v4.0.0
	github.com/golang/gddo v0.0.0-20190419222130-af0f2af80721
	github.com/golang/protobuf v1.5.2
	github.com/gomodule/redigo v2.0.0+incompatible
	github.com/gorilla/websocket v1.4.1
	github.com/grpc-ecosystem/go-grpc-middleware v1.3.0
	github.com/grpc-ecosystem/go-grpc-prometheus v1.2.0
	github.com/johannesboyne/gofakes3 v0.0.0-20200510090907-02d71f533bec
	github.com/jpillora/backoff v1.0.0
	github.com/mitchellh/copystructure v1.0.0
	github.com/prometheus/client_golang v1.10.0
	github.com/rafaeljusto/redigomock v0.0.0-20190202135759-257e089e14a1
	github.com/sebest/xff v0.0.0-20210106013422-671bd2870b3a
	github.com/shabbyrobe/gocovmerge v0.0.0-20190829150210-3e036491d500 // indirect
	github.com/sirupsen/logrus v1.8.1
	github.com/smartystreets/goconvey v1.6.4
	github.com/stretchr/testify v1.7.0
	gitlab.com/gitlab-org/gitaly/v14 v14.3.0-rc2.0.20211007055622-df7dadcc3f74
	gitlab.com/gitlab-org/golang-archive-zip v0.1.0
	gitlab.com/gitlab-org/labkit v1.6.0
	gocloud.dev v0.23.0
	golang.org/x/image v0.0.0-20191009234506-e7c1f5e7dbb8
	golang.org/x/lint v0.0.0-20201208152925-83fdc39ff7b5
	golang.org/x/net v0.0.0-20210505214959-0714010a04ed
	golang.org/x/tools v0.1.0
	google.golang.org/grpc v1.38.0
	gopkg.in/DataDog/dd-trace-go.v1 v1.31.0 // indirect
	honnef.co/go/tools v0.1.3
)
